{
  "title": "VN_8 Summary",
  "hits": 0,
  "description": "",
  "panelsJSON": "[
    {\"col\":1,\"id\":\"VN_5-Sessions-for-period\",\"row\":1,\"size_x\":2,\"size_y\":2,\"type\":\"visualization\"},
    {\"col\":3,\"id\":\"VN_6-Session-Time-Line\",\"row\":1,\"size_x\":2,\"size_y\":2,\"type\":\"visualization\"},
    {\"col\":5,\"id\":\"VN_5-Average-Responce-Time\",\"row\":1,\"size_x\":2,\"size_y\":2,\"type\":\"visualization\"},
    {\"col\":7,\"id\":\"VN_5-HTTP-Response-Time-histogram\",\"row\":1,\"size_x\":2,\"size_y\":2,\"type\":\"visualization\"},
    {\"col\":9,\"id\":\"VN_8-HTTP-Errors-for-period\",\"row\":1,\"size_x\":2,\"size_y\":2,\"type\":\"visualization\"},
    {\"col\":11,\"id\":\"VN_8-HTTP-Error-histogram\",\"row\":1,\"size_x\":2,\"size_y\":2,\"type\":\"visualization\"},

    {\"col\":1,\"id\":\"VN_8-Summary-Description\",\"row\":3,\"size_x\":12,\"size_y\":1,\"type\":\"visualization\"},
    {\"col\":1,\"id\":\"VN_5-Top-HTTP-Requests\",\"row\":4,\"size_x\":3,\"size_y\":4,\"type\":\"visualization\"},
    {\"col\":4,\"id\":\"VN_5-Server-Response-Time\",\"row\":4,\"size_x\":5,\"size_y\":4,\"type\":\"visualization\"},
    {\"col\":9,\"id\":\"VN_5-HTTP-Server-Throughput\",\"row\":4,\"size_x\":4,\"size_y\":2,\"type\":\"visualization\"},
    {\"col\":9,\"id\":\"VN_8-HTTP-Errors\",\"row\":6,\"size_x\":4,\"size_y\":2,\"type\":\"visualization\"},

    {\"col\":1,\"id\":\"VN_8-Components-Description\",\"row\":8,\"size_x\":12,\"size_y\":1,\"type\":\"visualization\"},
    {\"col\":1,\"id\":\"VN_5_1-Component-Throughput\",\"row\":9,\"size_x\":3,\"size_y\":2,\"type\":\"visualization\"},
    {\"col\":4,\"id\":\"VN_5_1-Components-consumption\",\"row\":9,\"size_x\":5,\"size_y\":2,\"type\":\"visualization\"},
    {\"col\":9,\"id\":\"VN_5_1-Component-Errors\",\"row\":9,\"size_x\":4,\"size_y\":2,\"type\":\"visualization\"},

    {\"col\":1,\"id\":\"VN_8-Log-Analysis-Description\",\"row\":11,\"size_x\":12,\"size_y\":1,\"type\":\"visualization\"},
    {\"col\":1,\"id\":\"VN_5-Event-Log\",\"row\":12,\"size_x\":8,\"size_y\":4,\"type\":\"search\"},
    {\"col\":9,\"id\":\"VN_5-User-Events\",\"row\":12,\"size_x\":4,\"size_y\":4,\"type\":\"search\"}
    ]",
  "version": 1,
  "kibanaSavedObjectMeta": {
    "searchSourceJSON": "{\"filter\":[{\"meta\":{\"apply\":true,\"disabled\":false,\"index\":\"statsd-*\",\"key\":\"ns\",\"negate\":false,\"value\":\"token-123128\"},\"query\":{\"match\":{\"ns\":{\"query\":\"token-123128\",\"type\":\"phrase\"}}}},{\"query\":{\"query_string\":{\"analyze_wildcard\":true,\"query\":\"*\"}}}]}"
  }
}