{"took":1,"timed_out":false,"_shards":{"total":1,"successful":1,"failed":0},"hits":{"total":1,"max_score":1.0,"hits":[{"_index":".kibana","_type":"visualization","_id":"VN_7-How-to-diagnostic-failure-spike","_score":1.0,"_source":

{
    "title": "VN_7 How to diagnostic failure spike:",
    "visState": "{\"type\":\"markdown\",\"params\":{\"markdown\":\"#### **Validate work of DB engine and  Sub-services, check most often failed calls and how work app instances. Add filters and check related info in the log**.\"},\"aggs\":[],\"listeners\":{}}",
    "description": "Proceed with caution\nModifying objects is for advanced users only. Object properties are not validated and invalid objects could cause errors, data loss, or worse. Unless someone with intimate knowledge of the code told you to be in here, you probably shouldnt be.",
    "version": 1,
    "kibanaSavedObjectMeta": {
      "searchSourceJSON": "{\"query\":{\"query_string\":{\"analyze_wildcard\":true,\"query\":\"*\"}},\"filter\":[]}"
    }
  }
}]}}