{
  "took" : 1,
  "timed_out" : false,
  "_shards" : {
    "total" : 1,
    "successful" : 1,
    "failed" : 0
  },
  "hits" : {
    "total" : 1,
    "max_score" : 1.0,
    "hits" : [ {
      "_index" : ".kibana",
      "_type" : "visualization",
      "_id" : "VN_5-HTTP-Errors",
      "_score" : 1.0,
      "_source":{"title":"VN_5 HTTP Errors","visState":"{\"type\":\"histogram\",\"params\":{\"shareYAxis\":true,\"addTooltip\":true,\"addLegend\":true,\"mode\":\"stacked\",\"defaultYExtents\":false},\"aggs\":[{\"id\":\"1\",\"type\":\"count\",\"schema\":\"metric\",\"params\":{}},{\"id\":\"2\",\"type\":\"date_histogram\",\"schema\":\"segment\",\"params\":{\"field\":\"@timestamp\",\"interval\":\"auto\",\"min_doc_count\":1,\"extended_bounds\":{}}},{\"id\":\"3\",\"type\":\"terms\",\"schema\":\"group\",\"params\":{\"field\":\"status_code.raw\",\"include\":{\"pattern\":\"\"},\"size\":10,\"order\":\"desc\",\"orderBy\":\"1\"}}],\"listeners\":{}}","description":"","version":1,"kibanaSavedObjectMeta":{"searchSourceJSON":"{\"index\":\"logstash-*\",\"query\":{\"query_string\":{\"query\":\"event_type:http_request AND status_code:/[3,4,5][0-9][0-9]/\",\"analyze_wildcard\":true}},\"filter\":[]}"}}
    } ]
  }
}
