{
  "took" : 1,
  "timed_out" : false,
  "_shards" : {
    "total" : 1,
    "successful" : 1,
    "failed" : 0
  },
  "hits" : {
    "total" : 1,
    "max_score" : 1.0,
    "hits" : [ {
      "_index" : ".kibana",
      "_type" : "visualization",
      "_id" : "VN_7_1-Navigate",
      "_score" : 1.0,
      "_source":
{"title":"VN_7_1 Navigate","visState":"{\"type\":\"markdown\",\"params\":{\"markdown\":\"####**Use links to navigate:** ![id](http://maplight.org/sites/all/modules/map/modules/map_lobby/img/details.png) ** [Summary](/kibana/#/dashboard/VN_7-Summary)** ![id](http://maplight.org/sites/all/modules/map/modules/map_lobby/img/details.png) ** [Performance](/kibana/#/dashboard/VN_8-Performance) ** ![id](http://maplight.org/sites/all/modules/map/modules/map_lobby/img/details.png)** [Failures](/kibana/#/dashboard/VN_7-Failures)** ![id](http://maplight.org/sites/all/modules/map/modules/map_lobby/img/details.png)** [Log Analysis](/kibana/#/dashboard/VN_7-Log-Analysis)**\\n\\n[](Summary dashboard shows base metric of your application. You can see details into child dashboards:)\"},\"aggs\":[],\"listeners\":{}}","description":"Proceed with caution\nModifying objects is for advanced users only. Object properties are not validated and invalid objects could cause errors, data loss, or worse. Unless someone with intimate knowledge of the code told you to be in here, you probably shouldnot be.","version":1,"kibanaSavedObjectMeta":{"searchSourceJSON":"{\"query\":{\"query_string\":{\"analyze_wildcard\":true,\"query\":\"*\"}},\"filter\":[]}"}}

    } ]
  }
}
